[
  {"product_image" : "/images/people.png",
    "product_name" : "Produit phare"},
  {"product_image" : "/images/people.png",
    "product_name" : "Produit phare"},
  {"product_image" : "/images/people.png",
    "product_name" : "Produit phare"},
  {"product_image" : "/images/people.png",
    "product_name" : "Produit phare"},
  {"product_image" : "/images/people.png",
    "product_name" : "Produit phare"},
  {"product_image" : "/images/people.png",
    "product_name" : "Produit phare"},

  {"product_image" : "/images/fast-food.png",
  "product_name" : "Produit phare"},
  {"product_image" : "/images/fast-food.png",
    "product_name" : "Produit phare"},
  {"product_image" : "/images/fast-food.png",
    "product_name" : "Produit phare"},
  {"product_image" : "/images/fast-food.png",
    "product_name" : "Produit phare"},
  {"product_image" : "/images/fast-food.png",
    "product_name" : "Produit phare"},
  {"product_image" : "/images/fast-food.png",
    "product_name" : "Produit phare"}
]